{
  "types": [
    {
      "id": 1,
      "name": "sprinkler",
      "description": "Used for Irrigation"
    },
    {
      "id": 2,
      "name": "sensor",
      "description": "Monitors soil moisture"
    }
  ],
  "things": [
    {
      "id": 1,
      "name": "sensor1",
      "type": "sensor",
      "thing_group": "plot1"
    },
    {
      "id": 2,
      "name": "sensor2",
      "type": "sensor",
      "thing_group": "plot1"
    },
    {
      "id": 3,
      "name": "sensor3",
      "type": "sensor",
      "thing_group": "plot1"
    },
    {
      "id": 4,
      "name": "sensor4",
      "type": "sensor",
      "thing_group": "plot1"
    },
    {
      "id": 5,
      "name": "sensor5",
      "type": "sensor",
      "thing_group": "plot2"
    },
    {
      "id": 6,
      "name": "sensor6",
      "type": "sensor",
      "thing_group": "plot2"
    },
    {
      "id": 7,
      "name": "sensor7",
      "type": "sensor",
      "thing_group": "plot2"
    },
    {
      "id": 8,
      "name": "sensor8",
      "type": "sensor",
      "thing_group": "plot2"
    },
    {
      "id": 9,
      "name": "sensor9",
      "type": "sensor",
      "thing_group": "plot3"
    },
    {
      "id": 10,
      "name": "sensor10",
      "type": "sensor",
      "thing_group": "plot3"
    },
    {
      "id": 11,
      "name": "sensor11",
      "type": "sensor",
      "thing_group": "plot3"
    },
    {
      "id": 12,
      "name": "sensor12",
      "type": "sensor",
      "thing_group": "plot3"
    },
    {
      "id": 13,
      "name": "sensor13",
      "type": "sensor",
      "thing_group": "plot4",
      "topic": "plot4/sensor13"
    },
    {
      "id": 14,
      "name": "sensor14",
      "type": "sensor",
      "thing_group": "plot4"
    },
    {
      "id": 15,
      "name": "sensor15",
      "type": "sensor",
      "thing_group": "plot4"
    },
    {
      "id": 16,
      "name": "sensor16",
      "type": "sensor",
      "thing_group": "plot4"
    },
    {
      "id": 17,
      "name": "sensor17",
      "type": "sensor",
      "thing_group": "plot5"
    },
    {
      "id": 18,
      "name": "sensor18",
      "type": "sensor",
      "thing_group": "plot5"
    },
    {
      "id": 19,
      "name": "sensor19",
      "type": "sensor",
      "thing_group": "plot5"
    },
    {
      "id": 20,
      "name": "sensor20",
      "type": "sensor",
      "thing_group": "plot5"
    },
    {
      "id": 21,
      "name": "sprinkler1",
      "type": "sprinkler",
      "thing_group": "plot1"
    },
    {
      "id": 22,
      "name": "sprinkler2",
      "type": "sprinkler",
      "thing_group": "plot2"
    },
    {
      "id": 23,
      "name": "sprinkler3",
      "type": "sprinkler",
      "thing_group": "plot3"
    },
    {
      "id": 24,
      "name": "sprinkler4",
      "type": "sprinkler",
      "thing_group": "plot4"
    },
    {
      "id": 25,
      "name": "sprinkler5",
      "type": "sprinkler",
      "thing_group": "plot5"
    }
  ],
  "things_group": [
    {
      "id": 1,
      "name": "plot1",
      "desc": "Plot 1 group",
      "topic": "iot/plot1",
      "location": {
        "lat": 66,
        "long": 78
      }
    },
    {
      "id": 2,
      "name": "plot2",
      "desc": "Plot 2 group",
      "topic": "iot/plot2",
      "location": {
        "lat": 68,
        "long": 80
      }
    },
    {
      "id": 3,
      "name": "plot3",
      "desc": "Plot 3 group",
      "topic": "iot/plot3",
      "location": {
        "lat": 56,
        "long": 68
      }
    },
    {
      "id": 4,
      "name": "plot4",
      "desc": "Plot 4 group",
      "topic": "iot/plot4",
      "location": {
        "lat": 60,
        "long": 90
      }
    },
    {
      "id": 5,
      "name": "plot5",
      "desc": "Plot 5 group",
      "topic": "iot/plot5",
      "location": {
        "lat": 85,
        "long": 55
      }
    }
  ]
}